%!Adobe-FontList 1.22
%Locale:0x409

%BeginFont
Handler:DirectoryHandler
FontType:Invalid
OutlineFileName:/RTS Documents/Marketing/2021 Projects/Hino Landing Page_R1211020111211/RTS Website - HIno Landing Page Folder/Document fonts/AdobeFnt22.lst
FileLength:1268
FileModTime:658174002
%EndFont

%BeginFont
Handler:DirectoryHandler
FontType:TrueType
FontName:BentonSans-Black
FamilyName:Benton Sans
StyleName:Black
MenuName:BentonSans Black
StyleBits:0
WeightClass:800
WidthClass:5
AngleClass:0
FullName:BentonSans Black
WritingScript:Roman
OutlineFileName:/RTS Documents/Marketing/2021 Projects/Hino Landing Page_R1211020111211/RTS Website - HIno Landing Page Folder/Document fonts/BentonSans-Black_T.ttf
DataFormat:sfntData
hasSVG:no
VariableFontType:NonVariableFont
FileLength:172408
FileModTime:397580239
NameArray:0,Mac,4,BentonSans Black
NameArray:0,Win,1,BentonSans Black
NameArray:0,Win,16,Benton Sans
%EndFont

%BeginFont
Handler:DirectoryHandler
FontType:TrueType
FontName:BentonSans-Bold
FamilyName:Benton Sans
StyleName:Bold
MenuName:BentonSans
StyleBits:2
WeightClass:700
WidthClass:5
AngleClass:0
FullName:BentonSans Bold
WritingScript:Roman
OutlineFileName:/RTS Documents/Marketing/2021 Projects/Hino Landing Page_R1211020111211/RTS Website - HIno Landing Page Folder/Document fonts/BentonSans-Bold_T.ttf
DataFormat:sfntData
hasSVG:no
VariableFontType:NonVariableFont
FileLength:180904
FileModTime:397580240
NameArray:0,Mac,4,BentonSans Bold
NameArray:0,Win,1,BentonSans
NameArray:0,Win,16,Benton Sans
%EndFont

